{'ApplicationMgr': {'AppName': 'Noether',
                    'EvtMax': 20,
                    'EvtSel': 'NONE',
                    'ExtSvc': ['DataOnDemandSvc/DataOnDemandSvc'],
                    'TopAlg': ['EventIndexerTest::FakeIndexerData/FakeIndexerData',
                               'EventIndexer/EventIndexer']},
 'ChargedProtoAddInfo': {'AddInfo': ['ChargedProtoParticleAddMuonInfo/ChargedProtoPAddMuon',
                                     'ChargedProtoParticleAddRichInfo/ChargedProtoPAddRich',
                                     'ChargedProtoParticleAddCombineDLLs/ChargedProtoPAddCombDLLs']},
 'CheckChargedProtosExist': {'Inputs': ['/Event/Rec/ProtoP/Charged'],
                             'OutputLevel': 5,
                             'Stop': False},
 'DataOnDemandSvc': {'AlgMap': {'/Event/MC/Ecal/Hits': 'MCEcalHitUnpacker/UnpackMCEcalHits',
                                '/Event/MC/FT/Hits': 'MCFTHitUnpacker/UnpackMCFTHits',
                                '/Event/MC/Hcal/Hits': 'MCHcalHitUnpacker/UnpackMCHcalHits',
                                '/Event/MC/Muon/Hits': 'MCMuonHitUnpacker/UnpackMCMuonHits',
                                '/Event/MC/Particles': 'UnpackMCParticle/UnpackMCParticles',
                                '/Event/MC/Rich/Hits': 'MCRichHitUnpacker/UnpackMCRichHits',
                                '/Event/MC/Rich/OpticalPhotons': 'MCRichOpticalPhotonUnpacker/UnpackMCRichPhots',
                                '/Event/MC/Rich/Segments': 'MCRichSegmentUnpacker/UnpackMCRichSegments',
                                '/Event/MC/Rich/Tracks': 'MCRichTrackUnpacker/UnpackMCRichTracks',
                                '/Event/MC/UT/Hits': 'MCUTHitUnpacker/UnpackMCUTHits',
                                '/Event/MC/VP/Hits': 'MCVPHitUnpacker/UnpackMCVPHits',
                                '/Event/MC/Vertices': 'UnpackMCVertex/UnpackMCVertices',
                                '/Event/Next/MC/Ecal/Hits': 'MCEcalHitUnpacker/UnpackMCEcalHitsNext',
                                '/Event/Next/MC/FT/Hits': 'MCFTHitUnpacker/UnpackMCFTHitsNext',
                                '/Event/Next/MC/Hcal/Hits': 'MCHcalHitUnpacker/UnpackMCHcalHitsNext',
                                '/Event/Next/MC/Muon/Hits': 'MCMuonHitUnpacker/UnpackMCMuonHitsNext',
                                '/Event/Next/MC/Particles': 'UnpackMCParticle/UnpackMCParticlesNext',
                                '/Event/Next/MC/Rich/Hits': 'MCRichHitUnpacker/UnpackMCRichHitsNext',
                                '/Event/Next/MC/Rich/OpticalPhotons': 'MCRichOpticalPhotonUnpacker/UnpackMCRichPhotsNext',
                                '/Event/Next/MC/Rich/Segments': 'MCRichSegmentUnpacker/UnpackMCRichSegmentsNext',
                                '/Event/Next/MC/Rich/Tracks': 'MCRichTrackUnpacker/UnpackMCRichTracksNext',
                                '/Event/Next/MC/UT/Hits': 'MCUTHitUnpacker/UnpackMCUTHitsNext',
                                '/Event/Next/MC/VP/Hits': 'MCVPHitUnpacker/UnpackMCVPHitsNext',
                                '/Event/Next/MC/Vertices': 'UnpackMCVertex/UnpackMCVerticesNext',
                                '/Event/NextNext/MC/Ecal/Hits': 'MCEcalHitUnpacker/UnpackMCEcalHitsNextNext',
                                '/Event/NextNext/MC/FT/Hits': 'MCFTHitUnpacker/UnpackMCFTHitsNextNext',
                                '/Event/NextNext/MC/Hcal/Hits': 'MCHcalHitUnpacker/UnpackMCHcalHitsNextNext',
                                '/Event/NextNext/MC/Muon/Hits': 'MCMuonHitUnpacker/UnpackMCMuonHitsNextNext',
                                '/Event/NextNext/MC/Particles': 'UnpackMCParticle/UnpackMCParticlesNextNext',
                                '/Event/NextNext/MC/Rich/Hits': 'MCRichHitUnpacker/UnpackMCRichHitsNextNext',
                                '/Event/NextNext/MC/Rich/OpticalPhotons': 'MCRichOpticalPhotonUnpacker/UnpackMCRichPhotsNextNext',
                                '/Event/NextNext/MC/Rich/Segments': 'MCRichSegmentUnpacker/UnpackMCRichSegmentsNextNext',
                                '/Event/NextNext/MC/Rich/Tracks': 'MCRichTrackUnpacker/UnpackMCRichTracksNextNext',
                                '/Event/NextNext/MC/UT/Hits': 'MCUTHitUnpacker/UnpackMCUTHitsNextNext',
                                '/Event/NextNext/MC/VP/Hits': 'MCVPHitUnpacker/UnpackMCVPHitsNextNext',
                                '/Event/NextNext/MC/Vertices': 'UnpackMCVertex/UnpackMCVerticesNextNext',
                                '/Event/Prev/MC/Ecal/Hits': 'MCEcalHitUnpacker/UnpackMCEcalHitsPrev',
                                '/Event/Prev/MC/FT/Hits': 'MCFTHitUnpacker/UnpackMCFTHitsPrev',
                                '/Event/Prev/MC/Hcal/Hits': 'MCHcalHitUnpacker/UnpackMCHcalHitsPrev',
                                '/Event/Prev/MC/Muon/Hits': 'MCMuonHitUnpacker/UnpackMCMuonHitsPrev',
                                '/Event/Prev/MC/Particles': 'UnpackMCParticle/UnpackMCParticlesPrev',
                                '/Event/Prev/MC/Rich/Hits': 'MCRichHitUnpacker/UnpackMCRichHitsPrev',
                                '/Event/Prev/MC/Rich/OpticalPhotons': 'MCRichOpticalPhotonUnpacker/UnpackMCRichPhotsPrev',
                                '/Event/Prev/MC/Rich/Segments': 'MCRichSegmentUnpacker/UnpackMCRichSegmentsPrev',
                                '/Event/Prev/MC/Rich/Tracks': 'MCRichTrackUnpacker/UnpackMCRichTracksPrev',
                                '/Event/Prev/MC/UT/Hits': 'MCUTHitUnpacker/UnpackMCUTHitsPrev',
                                '/Event/Prev/MC/VP/Hits': 'MCVPHitUnpacker/UnpackMCVPHitsPrev',
                                '/Event/Prev/MC/Vertices': 'UnpackMCVertex/UnpackMCVerticesPrev',
                                '/Event/PrevPrev/MC/Ecal/Hits': 'MCEcalHitUnpacker/UnpackMCEcalHitsPrevPrev',
                                '/Event/PrevPrev/MC/FT/Hits': 'MCFTHitUnpacker/UnpackMCFTHitsPrevPrev',
                                '/Event/PrevPrev/MC/Hcal/Hits': 'MCHcalHitUnpacker/UnpackMCHcalHitsPrevPrev',
                                '/Event/PrevPrev/MC/Muon/Hits': 'MCMuonHitUnpacker/UnpackMCMuonHitsPrevPrev',
                                '/Event/PrevPrev/MC/Particles': 'UnpackMCParticle/UnpackMCParticlesPrevPrev',
                                '/Event/PrevPrev/MC/Rich/Hits': 'MCRichHitUnpacker/UnpackMCRichHitsPrevPrev',
                                '/Event/PrevPrev/MC/Rich/OpticalPhotons': 'MCRichOpticalPhotonUnpacker/UnpackMCRichPhotsPrevPrev',
                                '/Event/PrevPrev/MC/Rich/Segments': 'MCRichSegmentUnpacker/UnpackMCRichSegmentsPrevPrev',
                                '/Event/PrevPrev/MC/Rich/Tracks': 'MCRichTrackUnpacker/UnpackMCRichTracksPrevPrev',
                                '/Event/PrevPrev/MC/UT/Hits': 'MCUTHitUnpacker/UnpackMCUTHitsPrevPrev',
                                '/Event/PrevPrev/MC/VP/Hits': 'MCVPHitUnpacker/UnpackMCVPHitsPrevPrev',
                                '/Event/PrevPrev/MC/Vertices': 'UnpackMCVertex/UnpackMCVerticesPrevPrev',
                                '/Event/Rec/Muon/MuonPID': 'GaudiSequencer/UnpackMuonPIDSeq',
                                '/Event/Rec/ProtoP/Charged': 'GaudiSequencer/UnpackChargedProtosSeq',
                                '/Event/Rec/ProtoP/Neutrals': 'UnpackProtoParticle/UnpackNeutralProtos',
                                '/Event/Rec/Rich/PIDs': 'GaudiSequencer/UnpackRichPIDSeq',
                                '/Event/Rec/Track/Best': 'UnpackTrack/UnpackTrack',
                                '/Event/Rec/Track/Muon': 'UnpackTrack/UnpackMuonTracks',
                                '/Event/Rec/Vertex/Primary': 'UnpackRecVertex/UnpackRecVertex',
                                '/Event/Rec/Vertex/PrimaryVertices': 'RecToPVConverter/RecToPVConverter',
                                '/Event/Rec/Vertex/V0': 'UnpackTwoProngVertex/UnpackTwoProngVertex',
                                '/Event/Rec/Vertex/Weights': 'UnpackWeightsVector/UnpackPVWeights',
                                'MC/Rich/DigitSummaries': 'MCRichDigitSummaryUnpacker/MCRichDigitSummaryUnpacker',
                                'Rec/Calo/Electrons': 'UnpackCaloHypo/UnpackElectrons',
                                'Rec/Calo/MergedPi0s': 'UnpackCaloHypo/UnpackMergedPi0s',
                                'Rec/Calo/Photons': 'UnpackCaloHypo/UnpackPhotons',
                                'Rec/Calo/SplitPhotons': 'UnpackCaloHypo/UnpackSplitPhotons'},
                     'AlgMappingTools': ['TrackClustersMapper/UnpackTkClustersMapper',
                                         'ConversionDODMapper/LiteClusterMapper',
                                         'ParticlesAndVerticesMapper/UnpackPsAndVsMapper',
                                         'ConversionDODMapper/UnpackRecPhysMapper'],
                     'NodeMappingTools': ['TrackClustersMapper/UnpackTkClustersMapper',
                                          'ConversionDODMapper/LiteClusterMapper',
                                          'ParticlesAndVerticesMapper/UnpackPsAndVsMapper',
                                          'ConversionDODMapper/UnpackRecPhysMapper']},
 'EventDataSvc': {'ForceLeaves': True},
 'EventIndexer': {'OutputFile': 'no_stream.root'},
 'ProtoParticleCombDLLs': {'IgnoreFilterPassed': False,
                           'Members': ['TESCheck/CheckChargedProtosExist',
                                       'ChargedProtoParticleAddInfo/ChargedProtoAddInfo']},
 'Strip_pPhys_DecReports_Converter': {'InputName': 'Strip/pPhys/DecReports'},
 'ToolSvc.LiteClusterMapper': {'Algorithms': {397222: 'VeloClustersToLite',
                                              402220: 'STClustersToLite'},
                               'InputOptionName': 'inputLocation',
                               'OutputOptionName': 'outputLocation',
                               'Transformations': [('(.*)/Raw/(.*)/LiteClusters',
                                                    '$1/Raw/$2/Clusters')]},
 'ToolSvc.UnpackPsAndVsMapper': {'VetoStreams': ['/Event/Turbo']},
 'ToolSvc.UnpackRecPhysMapper': {'Algorithms': {1510: 'UnpackMCParticle',
                                                1511: 'UnpackMCVertex',
                                                1541: 'DataPacking::Unpack<LHCb::CaloClusterPacker>',
                                                1542: 'DataPacking::Unpack<LHCb::CaloDigitPacker>',
                                                1543: 'DataPacking::Unpack<LHCb::CaloAdcPacker>',
                                                1550: 'UnpackTrack',
                                                1551: 'UnpackCaloHypo',
                                                1552: 'UnpackProtoParticle',
                                                1553: 'UnpackRecVertex',
                                                1555: 'DataPacking::Unpack<LHCb::WeightsVectorPacker>',
                                                1559: 'UnpackDecReport',
                                                1561: 'DataPacking::Unpack<LHCb::RichPIDPacker>',
                                                1571: 'DataPacking::Unpack<LHCb::MuonPIDPacker>',
                                                1581: 'UnpackParticlesAndVertices'},
                                 'Transformations': [('(.*)/Rec(.*)',
                                                      '$1/pRec$2'),
                                                     ('(.*)/Raw(.*)',
                                                      '$1/pRaw$2'),
                                                     ('(.*)/Phys(.*)',
                                                      '$1/pPhys$2'),
                                                     ('(.*)/MC(.*)',
                                                      '$1/pMC$2')]},
 'UnpackChargedProtos': {'InputName': '/Event/pRec/ProtoP/Charged',
                         'OutputName': '/Event/Rec/ProtoP/Charged'},
 'UnpackChargedProtosSeq': {'Members': ['UnpackProtoParticle/UnpackChargedProtos',
                                        'GaudiSequencer/ProtoParticleCombDLLs']},
 'UnpackElectrons': {'OutputLevel': 3},
 'UnpackMCEcalHitsNext': {'RootInTES': 'Next'},
 'UnpackMCEcalHitsNextNext': {'RootInTES': 'NextNext'},
 'UnpackMCEcalHitsPrev': {'RootInTES': 'Prev'},
 'UnpackMCEcalHitsPrevPrev': {'RootInTES': 'PrevPrev'},
 'UnpackMCFTHitsNext': {'RootInTES': 'Next'},
 'UnpackMCFTHitsNextNext': {'RootInTES': 'NextNext'},
 'UnpackMCFTHitsPrev': {'RootInTES': 'Prev'},
 'UnpackMCFTHitsPrevPrev': {'RootInTES': 'PrevPrev'},
 'UnpackMCHcalHitsNext': {'RootInTES': 'Next'},
 'UnpackMCHcalHitsNextNext': {'RootInTES': 'NextNext'},
 'UnpackMCHcalHitsPrev': {'RootInTES': 'Prev'},
 'UnpackMCHcalHitsPrevPrev': {'RootInTES': 'PrevPrev'},
 'UnpackMCMuonHitsNext': {'RootInTES': 'Next'},
 'UnpackMCMuonHitsNextNext': {'RootInTES': 'NextNext'},
 'UnpackMCMuonHitsPrev': {'RootInTES': 'Prev'},
 'UnpackMCMuonHitsPrevPrev': {'RootInTES': 'PrevPrev'},
 'UnpackMCParticlesNext': {'RootInTES': 'Next'},
 'UnpackMCParticlesNextNext': {'RootInTES': 'NextNext'},
 'UnpackMCParticlesPrev': {'RootInTES': 'Prev'},
 'UnpackMCParticlesPrevPrev': {'RootInTES': 'PrevPrev'},
 'UnpackMCRichHitsNext': {'RootInTES': 'Next'},
 'UnpackMCRichHitsNextNext': {'RootInTES': 'NextNext'},
 'UnpackMCRichHitsPrev': {'RootInTES': 'Prev'},
 'UnpackMCRichHitsPrevPrev': {'RootInTES': 'PrevPrev'},
 'UnpackMCRichPhotsNext': {'RootInTES': 'Next'},
 'UnpackMCRichPhotsNextNext': {'RootInTES': 'NextNext'},
 'UnpackMCRichPhotsPrev': {'RootInTES': 'Prev'},
 'UnpackMCRichPhotsPrevPrev': {'RootInTES': 'PrevPrev'},
 'UnpackMCRichSegmentsNext': {'RootInTES': 'Next'},
 'UnpackMCRichSegmentsNextNext': {'RootInTES': 'NextNext'},
 'UnpackMCRichSegmentsPrev': {'RootInTES': 'Prev'},
 'UnpackMCRichSegmentsPrevPrev': {'RootInTES': 'PrevPrev'},
 'UnpackMCRichTracksNext': {'RootInTES': 'Next'},
 'UnpackMCRichTracksNextNext': {'RootInTES': 'NextNext'},
 'UnpackMCRichTracksPrev': {'RootInTES': 'Prev'},
 'UnpackMCRichTracksPrevPrev': {'RootInTES': 'PrevPrev'},
 'UnpackMCUTHitsNext': {'RootInTES': 'Next'},
 'UnpackMCUTHitsNextNext': {'RootInTES': 'NextNext'},
 'UnpackMCUTHitsPrev': {'RootInTES': 'Prev'},
 'UnpackMCUTHitsPrevPrev': {'RootInTES': 'PrevPrev'},
 'UnpackMCVPHitsNext': {'RootInTES': 'Next'},
 'UnpackMCVPHitsNextNext': {'RootInTES': 'NextNext'},
 'UnpackMCVPHitsPrev': {'RootInTES': 'Prev'},
 'UnpackMCVPHitsPrevPrev': {'RootInTES': 'PrevPrev'},
 'UnpackMCVerticesNext': {'RootInTES': 'Next'},
 'UnpackMCVerticesNextNext': {'RootInTES': 'NextNext'},
 'UnpackMCVerticesPrev': {'RootInTES': 'Prev'},
 'UnpackMCVerticesPrevPrev': {'RootInTES': 'PrevPrev'},
 'UnpackMergedPi0s': {'InputName': 'pRec/Calo/MergedPi0s',
                      'OutputLevel': 3,
                      'OutputName': 'Rec/Calo/MergedPi0s'},
 'UnpackMuonPIDSeq': {'Members': ['UnpackMuonPIDs/UnpackMuonPIDs',
                                  'MuonPIDsFromProtoParticlesAlg/CheckMuonPIDs']},
 'UnpackMuonTracks': {'InputName': '/Event/pRec/Track/Muon',
                      'OutputName': '/Event/Rec/Track/Muon'},
 'UnpackNeutralProtos': {'InputName': '/Event/pRec/ProtoP/Neutrals',
                         'OutputName': '/Event/Rec/ProtoP/Neutrals'},
 'UnpackPhotons': {'InputName': 'pRec/Calo/Photons',
                   'OutputLevel': 3,
                   'OutputName': 'Rec/Calo/Photons'},
 'UnpackRichPIDSeq': {'Members': ['UnpackRichPIDs/UnpackRichPIDs',
                                  'RichPIDsFromProtoParticlesAlg/CheckRichPIDs']},
 'UnpackSplitPhotons': {'InputName': 'pRec/Calo/SplitPhotons',
                        'OutputLevel': 3,
                        'OutputName': 'Rec/Calo/SplitPhotons'}}
ApplicationMgr    SUCCESS
====================================================================================================================================
====================================================================================================================================
ApplicationMgr       INFO Application Manager Configured successfully
EventLoopMgr      WARNING Unable to locate service "EventSelector"
EventLoopMgr      WARNING No events will be processed from external input.
ApplicationMgr       INFO Application Manager Initialized successfully
ApplicationMgr       INFO Application Manager Started successfully
FakeIndexerData      INFO Pretend opening file 'first_file.FakeStream.dst'
FakeIndexerData      INFO Run 123456, Event 1
FakeIndexerData      INFO Run 123456, Event 2
FakeIndexerData      INFO Run 123456, Event 3
FakeIndexerData      INFO Run 123456, Event 4
FakeIndexerData      INFO Run 123456, Event 5
FakeIndexerData      INFO Run 123456, Event 6
FakeIndexerData      INFO Run 123456, Event 7
FakeIndexerData      INFO Run 123456, Event 8
FakeIndexerData      INFO Run 123456, Event 9
FakeIndexerData      INFO Run 123456, Event 10
FakeIndexerData      INFO Pretend opening file 'second_file.OtherStream.dst'
FakeIndexerData      INFO Run 123456, Event 11
FakeIndexerData      INFO Run 123456, Event 12
FakeIndexerData      INFO Run 123456, Event 13
FakeIndexerData      INFO Run 123456, Event 14
FakeIndexerData      INFO Run 123456, Event 15
FakeIndexerData      INFO Run 123456, Event 16
FakeIndexerData      INFO Run 123456, Event 17
FakeIndexerData      INFO Run 123456, Event 18
FakeIndexerData      INFO Run 123456, Event 19
FakeIndexerData      INFO Run 123456, Event 20
ApplicationMgr       INFO Application Manager Stopped successfully
EventLoopMgr         INFO Histograms converted successfully according to request.
ToolSvc              INFO Removing all tools created by ToolSvc
DataOnDemandSvc   WARNING ToolSvc already finalized: cannot release tools. Check options.
ApplicationMgr       INFO Application Manager Finalized successfully
ApplicationMgr       INFO Application Manager Terminated successfully
